[gd_scene load_steps=4 format=2]

[ext_resource path="res://spaceshooter/PNG/Power-ups/powerupRed_shield.png" type="Texture" id=1]
[ext_resource path="res://PowerUps/PowerUp.gd" type="Script" id=2]

[sub_resource type="RectangleShape2D" id=1]
extents = Vector2( 15.3313, 15.7541 )

[node name="PowerUp" type="Area2D"]
script = ExtResource( 2 )

[node name="CollisionShape2D" type="CollisionShape2D" parent="."]
shape = SubResource( 1 )

[node name="Sprite" type="Sprite" parent="."]
texture = ExtResource( 1 )

[node name="VisibilityNotifier2D" type="VisibilityNotifier2D" parent="."]
[connection signal="body_entered" from="." to="." method="_on_PowerUp_body_entered"]
[connection signal="screen_exited" from="VisibilityNotifier2D" to="." method="_on_VisibilityNotifier2D_screen_exited"]
