[gd_scene load_steps=4 format=2]

[ext_resource path="res://PowerUps/PowerUp.tscn" type="PackedScene" id=1]
[ext_resource path="res://spaceshooter/PNG/Power-ups/pill_blue.png" type="Texture" id=2]
[ext_resource path="res://PowerUps/TreShootPowerup.gd" type="Script" id=3]

[node name="TreShootPowerup" instance=ExtResource( 1 )]
script = ExtResource( 3 )

[node name="Sprite" parent="." index="1"]
texture = ExtResource( 2 )

[node name="VisibilityNotifier2D" parent="." index="2"]
position = Vector2( 0.334089, -0.222725 )
scale = Vector2( 1.10023, 1.17818 )
