[gd_scene load_steps=4 format=2]

[ext_resource path="res://spaceshooter/PNG/Lasers/laserBlue01.png" type="Texture" id=1]
[ext_resource path="res://Bullet/Bullet.gd" type="Script" id=2]

[sub_resource type="RectangleShape2D" id=1]
extents = Vector2( 5.15952, 27.1953 )

[node name=" Bullet" type="Area2D"]
script = ExtResource( 2 )
speed = 1200.0

[node name="CollisionShape2D" type="CollisionShape2D" parent="."]
shape = SubResource( 1 )

[node name="Sprite" type="Sprite" parent="."]
texture = ExtResource( 1 )

[node name="VisibilityNotifier2D" type="VisibilityNotifier2D" parent="."]
position = Vector2( -0.297303, 0.297302 )
scale = Vector2( 0.97027, 2.873 )
[connection signal="area_entered" from="." to="." method="_on__Bullet_area_entered"]
[connection signal="screen_exited" from="VisibilityNotifier2D" to="." method="_on_VisibilityNotifier2D_screen_exited"]
