; Engine configuration file.
; It's best edited using the editor UI and not directly,
; since the parameters that go here are not all obvious.
;
; Format:
;   [section] ; section goes between []
;   param=value ; assign values to parameters

config_version=4

_global_script_classes=[ {
"base": "CollisionShape2D",
"class": "ColShapePiece",
"language": "GDScript",
"path": "res://addons/snap_map/nodes/colshape_piece.gd"
}, {
"base": "ColShapePiece",
"class": "ColShapePieceEx",
"language": "GDScript",
"path": "res://addons/snap_map/nodes/colshape_expiece.gd"
}, {
"base": "Area2D",
"class": "Enemy",
"language": "GDScript",
"path": "res://Aktors/Enemy.gd"
}, {
"base": "Area2D",
"class": "Meteor",
"language": "GDScript",
"path": "res://meteor/Meteor.gd"
}, {
"base": "KinematicBody2D",
"class": "Player",
"language": "GDScript",
"path": "res://Aktors/Player.gd"
}, {
"base": "Area2D",
"class": "PlayingPiece",
"language": "GDScript",
"path": "res://addons/snap_map/nodes/playing_piece.gd"
}, {
"base": "Area2D",
"class": "Powerup",
"language": "GDScript",
"path": "res://PowerUps/PowerUp.gd"
}, {
"base": "RayCast2D",
"class": "RayCastPiece",
"language": "GDScript",
"path": "res://addons/snap_map/nodes/raycast_piece.gd"
}, {
"base": "TileMap",
"class": "SnapboundTiles",
"language": "GDScript",
"path": "res://addons/snap_map/nodes/snapbound_tiles.gd"
} ]
_global_script_class_icons={
"ColShapePiece": "res://addons/snap_map/nodes/colshape_piece.svg",
"ColShapePieceEx": "res://addons/snap_map/nodes/colshape_expiece.svg",
"Enemy": "",
"Meteor": "",
"Player": "",
"PlayingPiece": "res://addons/snap_map/nodes/playing_piece.svg",
"Powerup": "",
"RayCastPiece": "res://addons/snap_map/nodes/raycast_piece.svg",
"SnapboundTiles": "res://addons/snap_map/nodes/snapbound_tiles.svg"
}

[application]

config/name="YA_space_shooter"
run/main_scene="res://main.tscn"
config/icon="res://icon.png"

[autoload]

Signals="*res://Autoload/signals.gd"

[display]

window/size/width=450
window/stretch/mode="2d"
window/stretch/aspect="keep"

[input]

move_right={
"deadzone": 0.5,
"events": [ Object(InputEventKey,"resource_local_to_scene":false,"resource_name":"","device":0,"alt":false,"shift":false,"control":false,"meta":false,"command":false,"pressed":false,"scancode":16777233,"unicode":0,"echo":false,"script":null)
, Object(InputEventKey,"resource_local_to_scene":false,"resource_name":"","device":0,"alt":false,"shift":false,"control":false,"meta":false,"command":false,"pressed":false,"scancode":68,"unicode":0,"echo":false,"script":null)
, Object(InputEventJoypadMotion,"resource_local_to_scene":false,"resource_name":"","device":0,"axis":0,"axis_value":1.0,"script":null)
 ]
}
move_left={
"deadzone": 0.5,
"events": [ Object(InputEventKey,"resource_local_to_scene":false,"resource_name":"","device":0,"alt":false,"shift":false,"control":false,"meta":false,"command":false,"pressed":false,"scancode":16777231,"unicode":0,"echo":false,"script":null)
, Object(InputEventKey,"resource_local_to_scene":false,"resource_name":"","device":0,"alt":false,"shift":false,"control":false,"meta":false,"command":false,"pressed":false,"scancode":65,"unicode":0,"echo":false,"script":null)
, Object(InputEventJoypadMotion,"resource_local_to_scene":false,"resource_name":"","device":0,"axis":0,"axis_value":-1.0,"script":null)
 ]
}
move_up={
"deadzone": 0.5,
"events": [ Object(InputEventKey,"resource_local_to_scene":false,"resource_name":"","device":0,"alt":false,"shift":false,"control":false,"meta":false,"command":false,"pressed":false,"scancode":16777232,"unicode":0,"echo":false,"script":null)
, Object(InputEventKey,"resource_local_to_scene":false,"resource_name":"","device":0,"alt":false,"shift":false,"control":false,"meta":false,"command":false,"pressed":false,"scancode":87,"unicode":0,"echo":false,"script":null)
, Object(InputEventJoypadMotion,"resource_local_to_scene":false,"resource_name":"","device":0,"axis":1,"axis_value":-1.0,"script":null)
 ]
}
move_down={
"deadzone": 0.5,
"events": [ Object(InputEventKey,"resource_local_to_scene":false,"resource_name":"","device":0,"alt":false,"shift":false,"control":false,"meta":false,"command":false,"pressed":false,"scancode":16777234,"unicode":0,"echo":false,"script":null)
, Object(InputEventKey,"resource_local_to_scene":false,"resource_name":"","device":0,"alt":false,"shift":false,"control":false,"meta":false,"command":false,"pressed":false,"scancode":83,"unicode":0,"echo":false,"script":null)
, Object(InputEventJoypadMotion,"resource_local_to_scene":false,"resource_name":"","device":0,"axis":1,"axis_value":1.0,"script":null)
 ]
}
shoot={
"deadzone": 0.5,
"events": [ Object(InputEventKey,"resource_local_to_scene":false,"resource_name":"","device":0,"alt":false,"shift":false,"control":false,"meta":false,"command":false,"pressed":false,"scancode":32,"unicode":0,"echo":false,"script":null)
, Object(InputEventJoypadButton,"resource_local_to_scene":false,"resource_name":"","device":0,"button_index":1,"pressure":0.0,"pressed":false,"script":null)
 ]
}

[layer_names]

2d_physics/layer_1="player"
2d_physics/layer_2="player_shoot"
2d_physics/layer_3="enemy"
2d_physics/layer_4="enemy_shoot"
2d_physics/layer_5="meteor"

[rendering]

quality/driver/driver_name="GLES2"
vram_compression/import_etc=true
vram_compression/import_etc2=false
environment/default_environment="res://default_env.tres"
