[gd_scene load_steps=3 format=2]

[ext_resource path="res://HUD/HPicon.tscn" type="PackedScene" id=1]
[ext_resource path="res://HUD/HUD.gd" type="Script" id=2]

[node name="HUD" type="Control"]
anchor_right = 1.0
anchor_bottom = 1.0
script = ExtResource( 2 )
__meta__ = {
"_edit_use_anchors_": false
}

[node name="hpContainer" type="HBoxContainer" parent="."]
margin_left = 10.0
margin_top = 22.0
margin_right = 40.0
margin_bottom = 40.0
custom_constants/separation = 5
__meta__ = {
"_edit_use_anchors_": false
}

[node name="HPicon" parent="hpContainer" instance=ExtResource( 1 )]

[node name="HPicon2" parent="hpContainer" instance=ExtResource( 1 )]
margin_left = 35.0
margin_right = 65.0

[node name="HPicon3" parent="hpContainer" instance=ExtResource( 1 )]
margin_left = 70.0
margin_right = 100.0

[node name="Score" type="Label" parent="."]
margin_left = 60.0
margin_top = 5.0
margin_right = 115.0
margin_bottom = 25.0
text = "0"
__meta__ = {
"_edit_use_anchors_": false
}

[node name="Label" type="Label" parent="."]
margin_left = 10.0
margin_top = 5.0
margin_right = 60.0
margin_bottom = 20.0
text = "Score:"
__meta__ = {
"_edit_use_anchors_": false
}
